-- Merging decision tree log ---
manifest
ADDED from F:\Faeez\New folder\rnwebviewreppo\WebviewApp\android\app\src\main\AndroidManifest.xml:1:1-26:12
INJECTED from F:\Faeez\New folder\rnwebviewreppo\WebviewApp\android\app\src\main\AndroidManifest.xml:1:1-26:12
INJECTED from F:\Faeez\New folder\rnwebviewreppo\WebviewApp\android\app\src\main\AndroidManifest.xml:1:1-26:12
INJECTED from F:\Faeez\New folder\rnwebviewreppo\WebviewApp\android\app\src\main\AndroidManifest.xml:1:1-26:12
MERGED from [:react-native-vector-icons] F:\Faeez\New folder\rnwebviewreppo\WebviewApp\node_modules\react-native-vector-icons\android\build\intermediates\library_manifest\release\AndroidManifest.xml:2:1-11:12
MERGED from [:react-native-webview] F:\Faeez\New folder\rnwebviewreppo\WebviewApp\node_modules\react-native-webview\android\build\intermediates\library_manifest\release\AndroidManifest.xml:2:1-23:12
MERGED from [:@react-native-community_masked-view] F:\Faeez\New folder\rnwebviewreppo\WebviewApp\node_modules\@react-native-community\masked-view\android\build\intermediates\library_manifest\release\AndroidManifest.xml:2:1-9:12
MERGED from [:react-native-device-info] F:\Faeez\New folder\rnwebviewreppo\WebviewApp\node_modules\react-native-device-info\android\build\intermediates\library_manifest\release\AndroidManifest.xml:2:1-22:12
MERGED from [:react-native-gesture-handler] F:\Faeez\New folder\rnwebviewreppo\WebviewApp\node_modules\react-native-gesture-handler\android\build\intermediates\library_manifest\release\AndroidManifest.xml:2:1-11:12
MERGED from [:react-native-reanimated] F:\Faeez\New folder\rnwebviewreppo\WebviewApp\node_modules\react-native-reanimated\android\build\intermediates\library_manifest\release\AndroidManifest.xml:2:1-11:12
MERGED from [:react-native-safe-area-context] F:\Faeez\New folder\rnwebviewreppo\WebviewApp\node_modules\react-native-safe-area-context\android\build\intermediates\library_manifest\release\AndroidManifest.xml:2:1-9:12
MERGED from [:react-native-screens] F:\Faeez\New folder\rnwebviewreppo\WebviewApp\node_modules\react-native-screens\android\build\intermediates\library_manifest\release\AndroidManifest.xml:2:1-11:12
MERGED from [com.facebook.react:react-native:0.61.5] C:\Users\lenovo pc\.gradle\caches\transforms-2\files-2.1\683e1eda6bcc747f651859afceb0b4b2\AndroidManifest.xml:2:1-13:12
MERGED from [com.google.android.material:material:1.1.0] C:\Users\lenovo pc\.gradle\caches\transforms-2\files-2.1\52dc25c085e63a858d64c6d020680273\AndroidManifest.xml:17:1-24:12
MERGED from [androidx.appcompat:appcompat:1.1.0] C:\Users\lenovo pc\.gradle\caches\transforms-2\files-2.1\f793ec7d357082c22f666dda092390c3\AndroidManifest.xml:17:1-24:12
MERGED from [androidx.swiperefreshlayout:swiperefreshlayout:1.1.0-alpha02] C:\Users\lenovo pc\.gradle\caches\transforms-2\files-2.1\8e4096724410301c8b7882cadb14f8c0\AndroidManifest.xml:17:1-24:12
MERGED from [org.webkit:android-jsc:r245459] C:\Users\lenovo pc\.gradle\caches\transforms-2\files-2.1\2c67f7ddc1b93571a960d0ca4b1992a6\AndroidManifest.xml:2:1-11:12
MERGED from [com.facebook.fresco:fresco:2.0.0] C:\Users\lenovo pc\.gradle\caches\transforms-2\files-2.1\5182c4062de3de7ae33bf35d83a0509a\AndroidManifest.xml:2:1-9:12
MERGED from [com.facebook.fresco:imagepipeline-okhttp3:2.0.0] C:\Users\lenovo pc\.gradle\caches\transforms-2\files-2.1\ba0856aec4712ad7262b623aad1d9239\AndroidManifest.xml:2:1-9:12
MERGED from [com.facebook.fresco:drawee:2.0.0] C:\Users\lenovo pc\.gradle\caches\transforms-2\files-2.1\38dc5058e37dec33014d879f3ff6524f\AndroidManifest.xml:2:1-9:12
MERGED from [com.facebook.fresco:nativeimagefilters:2.0.0] C:\Users\lenovo pc\.gradle\caches\transforms-2\files-2.1\dfded3ea6c13e5ce194ecc1a4c207426\AndroidManifest.xml:2:1-9:12
MERGED from [com.facebook.fresco:imagepipeline:2.0.0] C:\Users\lenovo pc\.gradle\caches\transforms-2\files-2.1\41454d5b61200a03a86e56d11031a964\AndroidManifest.xml:2:1-9:12
MERGED from [com.facebook.fresco:nativeimagetranscoder:2.0.0] C:\Users\lenovo pc\.gradle\caches\transforms-2\files-2.1\82c8f9792fd660749b22b3613edd2702\AndroidManifest.xml:2:1-9:12
MERGED from [com.facebook.fresco:imagepipeline-base:2.0.0] C:\Users\lenovo pc\.gradle\caches\transforms-2\files-2.1\fa40c845438c24c1ffcc9b121b739e68\AndroidManifest.xml:2:1-9:12
MERGED from [com.facebook.soloader:soloader:0.6.0] C:\Users\lenovo pc\.gradle\caches\transforms-2\files-2.1\691db5acfda6991289e4dbc81c1a36ee\AndroidManifest.xml:2:1-13:12
MERGED from [androidx.appcompat:appcompat-resources:1.1.0] C:\Users\lenovo pc\.gradle\caches\transforms-2\files-2.1\db849e9aca1ff27d642fef2bc4a6125d\AndroidManifest.xml:17:1-24:12
MERGED from [androidx.vectordrawable:vectordrawable-animated:1.1.0] C:\Users\lenovo pc\.gradle\caches\transforms-2\files-2.1\7bb2cd5fb606139250d502fbd704e7b2\AndroidManifest.xml:17:1-24:12
MERGED from [androidx.interpolator:interpolator:1.0.0] C:\Users\lenovo pc\.gradle\caches\transforms-2\files-2.1\078324dc8d61982b725637b685ec680f\AndroidManifest.xml:17:1-22:12
MERGED from [com.google.android.gms:play-services-iid:17.0.0] C:\Users\lenovo pc\.gradle\caches\transforms-2\files-2.1\1acf29f9f97027f6438bb92e6341e58e\AndroidManifest.xml:17:1-28:12
MERGED from [com.google.android.gms:play-services-base:17.0.0] C:\Users\lenovo pc\.gradle\caches\transforms-2\files-2.1\8c3b974d54a12b098e5820e7374b424e\AndroidManifest.xml:17:1-29:12
MERGED from [com.google.android.gms:play-services-stats:17.0.0] C:\Users\lenovo pc\.gradle\caches\transforms-2\files-2.1\31657d382e7fd52e6fab97d692892567\AndroidManifest.xml:2:1-9:12
MERGED from [com.google.android.gms:play-services-tasks:17.0.0] C:\Users\lenovo pc\.gradle\caches\transforms-2\files-2.1\644c3ed07b70ce920c0d10fff086a15e\AndroidManifest.xml:2:1-9:12
MERGED from [com.google.android.gms:play-services-basement:17.0.0] C:\Users\lenovo pc\.gradle\caches\transforms-2\files-2.1\3fa86817713b684ebdcd0f7be44111e7\AndroidManifest.xml:17:1-28:12
MERGED from [androidx.viewpager2:viewpager2:1.0.0] C:\Users\lenovo pc\.gradle\caches\transforms-2\files-2.1\926ad5da2c39063e17dd716946bb1d65\AndroidManifest.xml:17:1-24:12
MERGED from [androidx.fragment:fragment:1.2.1] C:\Users\lenovo pc\.gradle\caches\transforms-2\files-2.1\ab118eb989278a101f4b847b66608b58\AndroidManifest.xml:17:1-24:12
MERGED from [androidx.coordinatorlayout:coordinatorlayout:1.1.0] C:\Users\lenovo pc\.gradle\caches\transforms-2\files-2.1\bc48942a6578bdf83a55720f56feeabe\AndroidManifest.xml:17:1-24:12
MERGED from [androidx.drawerlayout:drawerlayout:1.0.0] C:\Users\lenovo pc\.gradle\caches\transforms-2\files-2.1\ca7c3228194a4f3cbc88acced11e9372\AndroidManifest.xml:17:1-22:12
MERGED from [androidx.viewpager:viewpager:1.0.0] C:\Users\lenovo pc\.gradle\caches\transforms-2\files-2.1\b9b411498de22cd10ec42e7b4c354a80\AndroidManifest.xml:17:1-22:12
MERGED from [androidx.legacy:legacy-support-core-utils:1.0.0] C:\Users\lenovo pc\.gradle\caches\transforms-2\files-2.1\fabcb6a53fe4dbd2d39a53015b200017\AndroidManifest.xml:17:1-22:12
MERGED from [androidx.loader:loader:1.0.0] C:\Users\lenovo pc\.gradle\caches\transforms-2\files-2.1\64bf6721e9f0d65ef40d2374501e6fbe\AndroidManifest.xml:17:1-22:12
MERGED from [androidx.activity:activity:1.1.0] C:\Users\lenovo pc\.gradle\caches\transforms-2\files-2.1\877a55294ad3dcbc2a469ac8f9ace7ab\AndroidManifest.xml:17:1-24:12
MERGED from [androidx.recyclerview:recyclerview:1.1.0] C:\Users\lenovo pc\.gradle\caches\transforms-2\files-2.1\8aadf35fe483e1516aad8f4651fca669\AndroidManifest.xml:17:1-24:12
MERGED from [androidx.customview:customview:1.0.0] C:\Users\lenovo pc\.gradle\caches\transforms-2\files-2.1\8f7798aecf376cb4123ae0162085104e\AndroidManifest.xml:17:1-22:12
MERGED from [androidx.transition:transition:1.2.0] C:\Users\lenovo pc\.gradle\caches\transforms-2\files-2.1\69c286c467b42fb98c85689b7bd960eb\AndroidManifest.xml:17:1-24:12
MERGED from [androidx.vectordrawable:vectordrawable:1.1.0] C:\Users\lenovo pc\.gradle\caches\transforms-2\files-2.1\dc4c63328d34763ce15332167361ff34\AndroidManifest.xml:17:1-24:12
MERGED from [androidx.core:core:1.1.0] C:\Users\lenovo pc\.gradle\caches\transforms-2\files-2.1\c5e01893901d6aae442c13e5e4fdcaeb\AndroidManifest.xml:17:1-26:12
MERGED from [androidx.cursoradapter:cursoradapter:1.0.0] C:\Users\lenovo pc\.gradle\caches\transforms-2\files-2.1\da3b86c7745c25f782e967ece9d36765\AndroidManifest.xml:17:1-22:12
MERGED from [androidx.versionedparcelable:versionedparcelable:1.1.0] C:\Users\lenovo pc\.gradle\caches\transforms-2\files-2.1\5e2e5ada09dcede384c77bbb3765e7b3\AndroidManifest.xml:17:1-27:12
MERGED from [androidx.lifecycle:lifecycle-viewmodel-savedstate:2.2.0] C:\Users\lenovo pc\.gradle\caches\transforms-2\files-2.1\8a5b39ae6e1b6da0cbc751af48cc8d5f\AndroidManifest.xml:17:1-24:12
MERGED from [androidx.lifecycle:lifecycle-viewmodel:2.2.0] C:\Users\lenovo pc\.gradle\caches\transforms-2\files-2.1\b59655970cceebd87e159be4b4c786f4\AndroidManifest.xml:17:1-24:12
MERGED from [androidx.cardview:cardview:1.0.0] C:\Users\lenovo pc\.gradle\caches\transforms-2\files-2.1\7e544c486bef51d118d178f81c0b0f5f\AndroidManifest.xml:17:1-22:12
MERGED from [androidx.lifecycle:lifecycle-runtime:2.2.0] C:\Users\lenovo pc\.gradle\caches\transforms-2\files-2.1\39d5b58eb5393a3b047dfc94073c50f1\AndroidManifest.xml:17:1-24:12
MERGED from [androidx.savedstate:savedstate:1.0.0] C:\Users\lenovo pc\.gradle\caches\transforms-2\files-2.1\35feee3d625693ba99116e5e60482064\AndroidManifest.xml:17:1-24:12
MERGED from [androidx.lifecycle:lifecycle-livedata:2.0.0] C:\Users\lenovo pc\.gradle\caches\transforms-2\files-2.1\5e3567182d835e3a9c2c0510f54b6459\AndroidManifest.xml:17:1-22:12
MERGED from [androidx.lifecycle:lifecycle-livedata-core:2.2.0] C:\Users\lenovo pc\.gradle\caches\transforms-2\files-2.1\b42d7795575f51c737adcc289c7a4f5a\AndroidManifest.xml:17:1-24:12
MERGED from [androidx.arch.core:core-runtime:2.1.0] C:\Users\lenovo pc\.gradle\caches\transforms-2\files-2.1\02fe9033d040193f12866186d57f3269\AndroidManifest.xml:17:1-24:12
MERGED from [androidx.documentfile:documentfile:1.0.0] C:\Users\lenovo pc\.gradle\caches\transforms-2\files-2.1\535c9784fb9b1dfd187c768e23777385\AndroidManifest.xml:17:1-22:12
MERGED from [androidx.localbroadcastmanager:localbroadcastmanager:1.0.0] C:\Users\lenovo pc\.gradle\caches\transforms-2\files-2.1\2151daeba9609bada1bbf1edd9052591\AndroidManifest.xml:17:1-22:12
MERGED from [androidx.print:print:1.0.0] C:\Users\lenovo pc\.gradle\caches\transforms-2\files-2.1\40c8a942a904c315f6b265240624c8bc\AndroidManifest.xml:17:1-22:12
MERGED from [com.android.installreferrer:installreferrer:1.1.1] C:\Users\lenovo pc\.gradle\caches\transforms-2\files-2.1\a0b4218decaf2681414963f93a557c04\AndroidManifest.xml:2:1-9:12
MERGED from [com.facebook.fresco:fbcore:2.0.0] C:\Users\lenovo pc\.gradle\caches\transforms-2\files-2.1\758f2702b604f9be5180f238584ce1ca\AndroidManifest.xml:2:1-9:12
INJECTED from F:\Faeez\New folder\rnwebviewreppo\WebviewApp\android\app\src\main\AndroidManifest.xml:1:1-26:12
INJECTED from F:\Faeez\New folder\rnwebviewreppo\WebviewApp\android\app\src\main\AndroidManifest.xml:1:1-26:12
INJECTED from F:\Faeez\New folder\rnwebviewreppo\WebviewApp\android\app\src\main\AndroidManifest.xml:1:1-26:12
	package
		ADDED from F:\Faeez\New folder\rnwebviewreppo\WebviewApp\android\app\src\main\AndroidManifest.xml:2:3-22
		INJECTED from F:\Faeez\New folder\rnwebviewreppo\WebviewApp\android\app\src\main\AndroidManifest.xml
		INJECTED from F:\Faeez\New folder\rnwebviewreppo\WebviewApp\android\app\src\main\AndroidManifest.xml
	android:versionName
		INJECTED from F:\Faeez\New folder\rnwebviewreppo\WebviewApp\android\app\src\main\AndroidManifest.xml
		ADDED from F:\Faeez\New folder\rnwebviewreppo\WebviewApp\android\app\src\main\AndroidManifest.xml:1:1-26:12
		INJECTED from F:\Faeez\New folder\rnwebviewreppo\WebviewApp\android\app\src\main\AndroidManifest.xml
	android:versionCode
		INJECTED from F:\Faeez\New folder\rnwebviewreppo\WebviewApp\android\app\src\main\AndroidManifest.xml
		ADDED from F:\Faeez\New folder\rnwebviewreppo\WebviewApp\android\app\src\main\AndroidManifest.xml:1:1-26:12
		INJECTED from F:\Faeez\New folder\rnwebviewreppo\WebviewApp\android\app\src\main\AndroidManifest.xml
	xmlns:android
		ADDED from F:\Faeez\New folder\rnwebviewreppo\WebviewApp\android\app\src\main\AndroidManifest.xml:1:11-69
uses-permission#android.permission.INTERNET
ADDED from F:\Faeez\New folder\rnwebviewreppo\WebviewApp\android\app\src\main\AndroidManifest.xml:4:5-67
MERGED from [com.google.android.gms:play-services-iid:17.0.0] C:\Users\lenovo pc\.gradle\caches\transforms-2\files-2.1\1acf29f9f97027f6438bb92e6341e58e\AndroidManifest.xml:24:5-67
MERGED from [com.google.android.gms:play-services-iid:17.0.0] C:\Users\lenovo pc\.gradle\caches\transforms-2\files-2.1\1acf29f9f97027f6438bb92e6341e58e\AndroidManifest.xml:24:5-67
	android:name
		ADDED from F:\Faeez\New folder\rnwebviewreppo\WebviewApp\android\app\src\main\AndroidManifest.xml:4:22-64
application
ADDED from F:\Faeez\New folder\rnwebviewreppo\WebviewApp\android\app\src\main\AndroidManifest.xml:6:5-24:19
MERGED from [:react-native-webview] F:\Faeez\New folder\rnwebviewreppo\WebviewApp\node_modules\react-native-webview\android\build\intermediates\library_manifest\release\AndroidManifest.xml:11:5-21:19
MERGED from [:react-native-webview] F:\Faeez\New folder\rnwebviewreppo\WebviewApp\node_modules\react-native-webview\android\build\intermediates\library_manifest\release\AndroidManifest.xml:11:5-21:19
MERGED from [:react-native-device-info] F:\Faeez\New folder\rnwebviewreppo\WebviewApp\node_modules\react-native-device-info\android\build\intermediates\library_manifest\release\AndroidManifest.xml:11:5-20:19
MERGED from [:react-native-device-info] F:\Faeez\New folder\rnwebviewreppo\WebviewApp\node_modules\react-native-device-info\android\build\intermediates\library_manifest\release\AndroidManifest.xml:11:5-20:19
MERGED from [com.facebook.react:react-native:0.61.5] C:\Users\lenovo pc\.gradle\caches\transforms-2\files-2.1\683e1eda6bcc747f651859afceb0b4b2\AndroidManifest.xml:11:5-20
MERGED from [com.facebook.react:react-native:0.61.5] C:\Users\lenovo pc\.gradle\caches\transforms-2\files-2.1\683e1eda6bcc747f651859afceb0b4b2\AndroidManifest.xml:11:5-20
MERGED from [com.google.android.material:material:1.1.0] C:\Users\lenovo pc\.gradle\caches\transforms-2\files-2.1\52dc25c085e63a858d64c6d020680273\AndroidManifest.xml:22:5-20
MERGED from [com.google.android.material:material:1.1.0] C:\Users\lenovo pc\.gradle\caches\transforms-2\files-2.1\52dc25c085e63a858d64c6d020680273\AndroidManifest.xml:22:5-20
MERGED from [com.facebook.soloader:soloader:0.6.0] C:\Users\lenovo pc\.gradle\caches\transforms-2\files-2.1\691db5acfda6991289e4dbc81c1a36ee\AndroidManifest.xml:11:5-20
MERGED from [com.facebook.soloader:soloader:0.6.0] C:\Users\lenovo pc\.gradle\caches\transforms-2\files-2.1\691db5acfda6991289e4dbc81c1a36ee\AndroidManifest.xml:11:5-20
MERGED from [com.google.android.gms:play-services-iid:17.0.0] C:\Users\lenovo pc\.gradle\caches\transforms-2\files-2.1\1acf29f9f97027f6438bb92e6341e58e\AndroidManifest.xml:26:5-20
MERGED from [com.google.android.gms:play-services-iid:17.0.0] C:\Users\lenovo pc\.gradle\caches\transforms-2\files-2.1\1acf29f9f97027f6438bb92e6341e58e\AndroidManifest.xml:26:5-20
MERGED from [com.google.android.gms:play-services-base:17.0.0] C:\Users\lenovo pc\.gradle\caches\transforms-2\files-2.1\8c3b974d54a12b098e5820e7374b424e\AndroidManifest.xml:22:5-27:19
MERGED from [com.google.android.gms:play-services-base:17.0.0] C:\Users\lenovo pc\.gradle\caches\transforms-2\files-2.1\8c3b974d54a12b098e5820e7374b424e\AndroidManifest.xml:22:5-27:19
MERGED from [com.google.android.gms:play-services-stats:17.0.0] C:\Users\lenovo pc\.gradle\caches\transforms-2\files-2.1\31657d382e7fd52e6fab97d692892567\AndroidManifest.xml:7:5-20
MERGED from [com.google.android.gms:play-services-stats:17.0.0] C:\Users\lenovo pc\.gradle\caches\transforms-2\files-2.1\31657d382e7fd52e6fab97d692892567\AndroidManifest.xml:7:5-20
MERGED from [com.google.android.gms:play-services-tasks:17.0.0] C:\Users\lenovo pc\.gradle\caches\transforms-2\files-2.1\644c3ed07b70ce920c0d10fff086a15e\AndroidManifest.xml:7:5-20
MERGED from [com.google.android.gms:play-services-tasks:17.0.0] C:\Users\lenovo pc\.gradle\caches\transforms-2\files-2.1\644c3ed07b70ce920c0d10fff086a15e\AndroidManifest.xml:7:5-20
MERGED from [com.google.android.gms:play-services-basement:17.0.0] C:\Users\lenovo pc\.gradle\caches\transforms-2\files-2.1\3fa86817713b684ebdcd0f7be44111e7\AndroidManifest.xml:22:5-26:19
MERGED from [com.google.android.gms:play-services-basement:17.0.0] C:\Users\lenovo pc\.gradle\caches\transforms-2\files-2.1\3fa86817713b684ebdcd0f7be44111e7\AndroidManifest.xml:22:5-26:19
MERGED from [androidx.core:core:1.1.0] C:\Users\lenovo pc\.gradle\caches\transforms-2\files-2.1\c5e01893901d6aae442c13e5e4fdcaeb\AndroidManifest.xml:24:5-89
MERGED from [androidx.core:core:1.1.0] C:\Users\lenovo pc\.gradle\caches\transforms-2\files-2.1\c5e01893901d6aae442c13e5e4fdcaeb\AndroidManifest.xml:24:5-89
MERGED from [androidx.versionedparcelable:versionedparcelable:1.1.0] C:\Users\lenovo pc\.gradle\caches\transforms-2\files-2.1\5e2e5ada09dcede384c77bbb3765e7b3\AndroidManifest.xml:24:5-25:19
MERGED from [androidx.versionedparcelable:versionedparcelable:1.1.0] C:\Users\lenovo pc\.gradle\caches\transforms-2\files-2.1\5e2e5ada09dcede384c77bbb3765e7b3\AndroidManifest.xml:24:5-25:19
MERGED from [com.android.installreferrer:installreferrer:1.1.1] C:\Users\lenovo pc\.gradle\caches\transforms-2\files-2.1\a0b4218decaf2681414963f93a557c04\AndroidManifest.xml:7:5-20
MERGED from [com.android.installreferrer:installreferrer:1.1.1] C:\Users\lenovo pc\.gradle\caches\transforms-2\files-2.1\a0b4218decaf2681414963f93a557c04\AndroidManifest.xml:7:5-20
	android:appComponentFactory
		ADDED from [androidx.core:core:1.1.0] C:\Users\lenovo pc\.gradle\caches\transforms-2\files-2.1\c5e01893901d6aae442c13e5e4fdcaeb\AndroidManifest.xml:24:18-86
	android:label
		ADDED from F:\Faeez\New folder\rnwebviewreppo\WebviewApp\android\app\src\main\AndroidManifest.xml:8:7-39
	android:roundIcon
		ADDED from F:\Faeez\New folder\rnwebviewreppo\WebviewApp\android\app\src\main\AndroidManifest.xml:10:7-52
	android:icon
		ADDED from F:\Faeez\New folder\rnwebviewreppo\WebviewApp\android\app\src\main\AndroidManifest.xml:9:7-41
	android:allowBackup
		ADDED from F:\Faeez\New folder\rnwebviewreppo\WebviewApp\android\app\src\main\AndroidManifest.xml:11:7-34
	android:theme
		ADDED from F:\Faeez\New folder\rnwebviewreppo\WebviewApp\android\app\src\main\AndroidManifest.xml:12:7-38
	android:name
		ADDED from F:\Faeez\New folder\rnwebviewreppo\WebviewApp\android\app\src\main\AndroidManifest.xml:7:7-38
activity#com.vizru.MainActivity
ADDED from F:\Faeez\New folder\rnwebviewreppo\WebviewApp\android\app\src\main\AndroidManifest.xml:13:7-22:18
	android:label
		ADDED from F:\Faeez\New folder\rnwebviewreppo\WebviewApp\android\app\src\main\AndroidManifest.xml:15:9-41
	android:windowSoftInputMode
		ADDED from F:\Faeez\New folder\rnwebviewreppo\WebviewApp\android\app\src\main\AndroidManifest.xml:17:9-51
	android:configChanges
		ADDED from F:\Faeez\New folder\rnwebviewreppo\WebviewApp\android\app\src\main\AndroidManifest.xml:16:9-79
	android:name
		ADDED from F:\Faeez\New folder\rnwebviewreppo\WebviewApp\android\app\src\main\AndroidManifest.xml:14:9-37
intent-filter#action:name:android.intent.action.MAIN+category:name:android.intent.category.LAUNCHER
ADDED from F:\Faeez\New folder\rnwebviewreppo\WebviewApp\android\app\src\main\AndroidManifest.xml:18:9-21:25
action#android.intent.action.MAIN
ADDED from F:\Faeez\New folder\rnwebviewreppo\WebviewApp\android\app\src\main\AndroidManifest.xml:19:13-65
	android:name
		ADDED from F:\Faeez\New folder\rnwebviewreppo\WebviewApp\android\app\src\main\AndroidManifest.xml:19:21-62
category#android.intent.category.LAUNCHER
ADDED from F:\Faeez\New folder\rnwebviewreppo\WebviewApp\android\app\src\main\AndroidManifest.xml:20:13-73
	android:name
		ADDED from F:\Faeez\New folder\rnwebviewreppo\WebviewApp\android\app\src\main\AndroidManifest.xml:20:23-70
activity#com.facebook.react.devsupport.DevSettingsActivity
ADDED from F:\Faeez\New folder\rnwebviewreppo\WebviewApp\android\app\src\main\AndroidManifest.xml:23:7-84
	android:name
		ADDED from F:\Faeez\New folder\rnwebviewreppo\WebviewApp\android\app\src\main\AndroidManifest.xml:23:17-81
uses-sdk
INJECTED from F:\Faeez\New folder\rnwebviewreppo\WebviewApp\android\app\src\main\AndroidManifest.xml reason: use-sdk injection requested
INJECTED from F:\Faeez\New folder\rnwebviewreppo\WebviewApp\android\app\src\main\AndroidManifest.xml
INJECTED from F:\Faeez\New folder\rnwebviewreppo\WebviewApp\android\app\src\main\AndroidManifest.xml
MERGED from [:react-native-vector-icons] F:\Faeez\New folder\rnwebviewreppo\WebviewApp\node_modules\react-native-vector-icons\android\build\intermediates\library_manifest\release\AndroidManifest.xml:7:5-9:41
MERGED from [:react-native-vector-icons] F:\Faeez\New folder\rnwebviewreppo\WebviewApp\node_modules\react-native-vector-icons\android\build\intermediates\library_manifest\release\AndroidManifest.xml:7:5-9:41
MERGED from [:react-native-webview] F:\Faeez\New folder\rnwebviewreppo\WebviewApp\node_modules\react-native-webview\android\build\intermediates\library_manifest\release\AndroidManifest.xml:7:5-9:41
MERGED from [:react-native-webview] F:\Faeez\New folder\rnwebviewreppo\WebviewApp\node_modules\react-native-webview\android\build\intermediates\library_manifest\release\AndroidManifest.xml:7:5-9:41
MERGED from [:@react-native-community_masked-view] F:\Faeez\New folder\rnwebviewreppo\WebviewApp\node_modules\@react-native-community\masked-view\android\build\intermediates\library_manifest\release\AndroidManifest.xml:5:5-7:41
MERGED from [:@react-native-community_masked-view] F:\Faeez\New folder\rnwebviewreppo\WebviewApp\node_modules\@react-native-community\masked-view\android\build\intermediates\library_manifest\release\AndroidManifest.xml:5:5-7:41
MERGED from [:react-native-device-info] F:\Faeez\New folder\rnwebviewreppo\WebviewApp\node_modules\react-native-device-info\android\build\intermediates\library_manifest\release\AndroidManifest.xml:7:5-9:41
MERGED from [:react-native-device-info] F:\Faeez\New folder\rnwebviewreppo\WebviewApp\node_modules\react-native-device-info\android\build\intermediates\library_manifest\release\AndroidManifest.xml:7:5-9:41
MERGED from [:react-native-gesture-handler] F:\Faeez\New folder\rnwebviewreppo\WebviewApp\node_modules\react-native-gesture-handler\android\build\intermediates\library_manifest\release\AndroidManifest.xml:7:5-9:41
MERGED from [:react-native-gesture-handler] F:\Faeez\New folder\rnwebviewreppo\WebviewApp\node_modules\react-native-gesture-handler\android\build\intermediates\library_manifest\release\AndroidManifest.xml:7:5-9:41
MERGED from [:react-native-reanimated] F:\Faeez\New folder\rnwebviewreppo\WebviewApp\node_modules\react-native-reanimated\android\build\intermediates\library_manifest\release\AndroidManifest.xml:7:5-9:41
MERGED from [:react-native-reanimated] F:\Faeez\New folder\rnwebviewreppo\WebviewApp\node_modules\react-native-reanimated\android\build\intermediates\library_manifest\release\AndroidManifest.xml:7:5-9:41
MERGED from [:react-native-safe-area-context] F:\Faeez\New folder\rnwebviewreppo\WebviewApp\node_modules\react-native-safe-area-context\android\build\intermediates\library_manifest\release\AndroidManifest.xml:5:5-7:41
MERGED from [:react-native-safe-area-context] F:\Faeez\New folder\rnwebviewreppo\WebviewApp\node_modules\react-native-safe-area-context\android\build\intermediates\library_manifest\release\AndroidManifest.xml:5:5-7:41
MERGED from [:react-native-screens] F:\Faeez\New folder\rnwebviewreppo\WebviewApp\node_modules\react-native-screens\android\build\intermediates\library_manifest\release\AndroidManifest.xml:7:5-9:41
MERGED from [:react-native-screens] F:\Faeez\New folder\rnwebviewreppo\WebviewApp\node_modules\react-native-screens\android\build\intermediates\library_manifest\release\AndroidManifest.xml:7:5-9:41
MERGED from [com.facebook.react:react-native:0.61.5] C:\Users\lenovo pc\.gradle\caches\transforms-2\files-2.1\683e1eda6bcc747f651859afceb0b4b2\AndroidManifest.xml:7:5-9:41
MERGED from [com.facebook.react:react-native:0.61.5] C:\Users\lenovo pc\.gradle\caches\transforms-2\files-2.1\683e1eda6bcc747f651859afceb0b4b2\AndroidManifest.xml:7:5-9:41
MERGED from [com.google.android.material:material:1.1.0] C:\Users\lenovo pc\.gradle\caches\transforms-2\files-2.1\52dc25c085e63a858d64c6d020680273\AndroidManifest.xml:20:5-44
MERGED from [com.google.android.material:material:1.1.0] C:\Users\lenovo pc\.gradle\caches\transforms-2\files-2.1\52dc25c085e63a858d64c6d020680273\AndroidManifest.xml:20:5-44
MERGED from [androidx.appcompat:appcompat:1.1.0] C:\Users\lenovo pc\.gradle\caches\transforms-2\files-2.1\f793ec7d357082c22f666dda092390c3\AndroidManifest.xml:20:5-22:41
MERGED from [androidx.appcompat:appcompat:1.1.0] C:\Users\lenovo pc\.gradle\caches\transforms-2\files-2.1\f793ec7d357082c22f666dda092390c3\AndroidManifest.xml:20:5-22:41
MERGED from [androidx.swiperefreshlayout:swiperefreshlayout:1.1.0-alpha02] C:\Users\lenovo pc\.gradle\caches\transforms-2\files-2.1\8e4096724410301c8b7882cadb14f8c0\AndroidManifest.xml:20:5-22:41
MERGED from [androidx.swiperefreshlayout:swiperefreshlayout:1.1.0-alpha02] C:\Users\lenovo pc\.gradle\caches\transforms-2\files-2.1\8e4096724410301c8b7882cadb14f8c0\AndroidManifest.xml:20:5-22:41
MERGED from [org.webkit:android-jsc:r245459] C:\Users\lenovo pc\.gradle\caches\transforms-2\files-2.1\2c67f7ddc1b93571a960d0ca4b1992a6\AndroidManifest.xml:7:5-9:41
MERGED from [org.webkit:android-jsc:r245459] C:\Users\lenovo pc\.gradle\caches\transforms-2\files-2.1\2c67f7ddc1b93571a960d0ca4b1992a6\AndroidManifest.xml:7:5-9:41
MERGED from [com.facebook.fresco:fresco:2.0.0] C:\Users\lenovo pc\.gradle\caches\transforms-2\files-2.1\5182c4062de3de7ae33bf35d83a0509a\AndroidManifest.xml:5:5-7:41
MERGED from [com.facebook.fresco:fresco:2.0.0] C:\Users\lenovo pc\.gradle\caches\transforms-2\files-2.1\5182c4062de3de7ae33bf35d83a0509a\AndroidManifest.xml:5:5-7:41
MERGED from [com.facebook.fresco:imagepipeline-okhttp3:2.0.0] C:\Users\lenovo pc\.gradle\caches\transforms-2\files-2.1\ba0856aec4712ad7262b623aad1d9239\AndroidManifest.xml:5:5-7:41
MERGED from [com.facebook.fresco:imagepipeline-okhttp3:2.0.0] C:\Users\lenovo pc\.gradle\caches\transforms-2\files-2.1\ba0856aec4712ad7262b623aad1d9239\AndroidManifest.xml:5:5-7:41
MERGED from [com.facebook.fresco:drawee:2.0.0] C:\Users\lenovo pc\.gradle\caches\transforms-2\files-2.1\38dc5058e37dec33014d879f3ff6524f\AndroidManifest.xml:5:5-7:41
MERGED from [com.facebook.fresco:drawee:2.0.0] C:\Users\lenovo pc\.gradle\caches\transforms-2\files-2.1\38dc5058e37dec33014d879f3ff6524f\AndroidManifest.xml:5:5-7:41
MERGED from [com.facebook.fresco:nativeimagefilters:2.0.0] C:\Users\lenovo pc\.gradle\caches\transforms-2\files-2.1\dfded3ea6c13e5ce194ecc1a4c207426\AndroidManifest.xml:5:5-7:41
MERGED from [com.facebook.fresco:nativeimagefilters:2.0.0] C:\Users\lenovo pc\.gradle\caches\transforms-2\files-2.1\dfded3ea6c13e5ce194ecc1a4c207426\AndroidManifest.xml:5:5-7:41
MERGED from [com.facebook.fresco:imagepipeline:2.0.0] C:\Users\lenovo pc\.gradle\caches\transforms-2\files-2.1\41454d5b61200a03a86e56d11031a964\AndroidManifest.xml:5:5-7:41
MERGED from [com.facebook.fresco:imagepipeline:2.0.0] C:\Users\lenovo pc\.gradle\caches\transforms-2\files-2.1\41454d5b61200a03a86e56d11031a964\AndroidManifest.xml:5:5-7:41
MERGED from [com.facebook.fresco:nativeimagetranscoder:2.0.0] C:\Users\lenovo pc\.gradle\caches\transforms-2\files-2.1\82c8f9792fd660749b22b3613edd2702\AndroidManifest.xml:5:5-7:41
MERGED from [com.facebook.fresco:nativeimagetranscoder:2.0.0] C:\Users\lenovo pc\.gradle\caches\transforms-2\files-2.1\82c8f9792fd660749b22b3613edd2702\AndroidManifest.xml:5:5-7:41
MERGED from [com.facebook.fresco:imagepipeline-base:2.0.0] C:\Users\lenovo pc\.gradle\caches\transforms-2\files-2.1\fa40c845438c24c1ffcc9b121b739e68\AndroidManifest.xml:5:5-7:41
MERGED from [com.facebook.fresco:imagepipeline-base:2.0.0] C:\Users\lenovo pc\.gradle\caches\transforms-2\files-2.1\fa40c845438c24c1ffcc9b121b739e68\AndroidManifest.xml:5:5-7:41
MERGED from [com.facebook.soloader:soloader:0.6.0] C:\Users\lenovo pc\.gradle\caches\transforms-2\files-2.1\691db5acfda6991289e4dbc81c1a36ee\AndroidManifest.xml:7:5-9:41
MERGED from [com.facebook.soloader:soloader:0.6.0] C:\Users\lenovo pc\.gradle\caches\transforms-2\files-2.1\691db5acfda6991289e4dbc81c1a36ee\AndroidManifest.xml:7:5-9:41
MERGED from [androidx.appcompat:appcompat-resources:1.1.0] C:\Users\lenovo pc\.gradle\caches\transforms-2\files-2.1\db849e9aca1ff27d642fef2bc4a6125d\AndroidManifest.xml:20:5-22:41
MERGED from [androidx.appcompat:appcompat-resources:1.1.0] C:\Users\lenovo pc\.gradle\caches\transforms-2\files-2.1\db849e9aca1ff27d642fef2bc4a6125d\AndroidManifest.xml:20:5-22:41
MERGED from [androidx.vectordrawable:vectordrawable-animated:1.1.0] C:\Users\lenovo pc\.gradle\caches\transforms-2\files-2.1\7bb2cd5fb606139250d502fbd704e7b2\AndroidManifest.xml:20:5-22:41
MERGED from [androidx.vectordrawable:vectordrawable-animated:1.1.0] C:\Users\lenovo pc\.gradle\caches\transforms-2\files-2.1\7bb2cd5fb606139250d502fbd704e7b2\AndroidManifest.xml:20:5-22:41
MERGED from [androidx.interpolator:interpolator:1.0.0] C:\Users\lenovo pc\.gradle\caches\transforms-2\files-2.1\078324dc8d61982b725637b685ec680f\AndroidManifest.xml:20:5-44
MERGED from [androidx.interpolator:interpolator:1.0.0] C:\Users\lenovo pc\.gradle\caches\transforms-2\files-2.1\078324dc8d61982b725637b685ec680f\AndroidManifest.xml:20:5-44
MERGED from [com.google.android.gms:play-services-iid:17.0.0] C:\Users\lenovo pc\.gradle\caches\transforms-2\files-2.1\1acf29f9f97027f6438bb92e6341e58e\AndroidManifest.xml:20:5-44
MERGED from [com.google.android.gms:play-services-iid:17.0.0] C:\Users\lenovo pc\.gradle\caches\transforms-2\files-2.1\1acf29f9f97027f6438bb92e6341e58e\AndroidManifest.xml:20:5-44
MERGED from [com.google.android.gms:play-services-base:17.0.0] C:\Users\lenovo pc\.gradle\caches\transforms-2\files-2.1\8c3b974d54a12b098e5820e7374b424e\AndroidManifest.xml:20:5-44
MERGED from [com.google.android.gms:play-services-base:17.0.0] C:\Users\lenovo pc\.gradle\caches\transforms-2\files-2.1\8c3b974d54a12b098e5820e7374b424e\AndroidManifest.xml:20:5-44
MERGED from [com.google.android.gms:play-services-stats:17.0.0] C:\Users\lenovo pc\.gradle\caches\transforms-2\files-2.1\31657d382e7fd52e6fab97d692892567\AndroidManifest.xml:5:5-44
MERGED from [com.google.android.gms:play-services-stats:17.0.0] C:\Users\lenovo pc\.gradle\caches\transforms-2\files-2.1\31657d382e7fd52e6fab97d692892567\AndroidManifest.xml:5:5-44
MERGED from [com.google.android.gms:play-services-tasks:17.0.0] C:\Users\lenovo pc\.gradle\caches\transforms-2\files-2.1\644c3ed07b70ce920c0d10fff086a15e\AndroidManifest.xml:5:5-44
MERGED from [com.google.android.gms:play-services-tasks:17.0.0] C:\Users\lenovo pc\.gradle\caches\transforms-2\files-2.1\644c3ed07b70ce920c0d10fff086a15e\AndroidManifest.xml:5:5-44
MERGED from [com.google.android.gms:play-services-basement:17.0.0] C:\Users\lenovo pc\.gradle\caches\transforms-2\files-2.1\3fa86817713b684ebdcd0f7be44111e7\AndroidManifest.xml:20:5-44
MERGED from [com.google.android.gms:play-services-basement:17.0.0] C:\Users\lenovo pc\.gradle\caches\transforms-2\files-2.1\3fa86817713b684ebdcd0f7be44111e7\AndroidManifest.xml:20:5-44
MERGED from [androidx.viewpager2:viewpager2:1.0.0] C:\Users\lenovo pc\.gradle\caches\transforms-2\files-2.1\926ad5da2c39063e17dd716946bb1d65\AndroidManifest.xml:20:5-22:41
MERGED from [androidx.viewpager2:viewpager2:1.0.0] C:\Users\lenovo pc\.gradle\caches\transforms-2\files-2.1\926ad5da2c39063e17dd716946bb1d65\AndroidManifest.xml:20:5-22:41
MERGED from [androidx.fragment:fragment:1.2.1] C:\Users\lenovo pc\.gradle\caches\transforms-2\files-2.1\ab118eb989278a101f4b847b66608b58\AndroidManifest.xml:20:5-22:41
MERGED from [androidx.fragment:fragment:1.2.1] C:\Users\lenovo pc\.gradle\caches\transforms-2\files-2.1\ab118eb989278a101f4b847b66608b58\AndroidManifest.xml:20:5-22:41
MERGED from [androidx.coordinatorlayout:coordinatorlayout:1.1.0] C:\Users\lenovo pc\.gradle\caches\transforms-2\files-2.1\bc48942a6578bdf83a55720f56feeabe\AndroidManifest.xml:20:5-22:41
MERGED from [androidx.coordinatorlayout:coordinatorlayout:1.1.0] C:\Users\lenovo pc\.gradle\caches\transforms-2\files-2.1\bc48942a6578bdf83a55720f56feeabe\AndroidManifest.xml:20:5-22:41
MERGED from [androidx.drawerlayout:drawerlayout:1.0.0] C:\Users\lenovo pc\.gradle\caches\transforms-2\files-2.1\ca7c3228194a4f3cbc88acced11e9372\AndroidManifest.xml:20:5-44
MERGED from [androidx.drawerlayout:drawerlayout:1.0.0] C:\Users\lenovo pc\.gradle\caches\transforms-2\files-2.1\ca7c3228194a4f3cbc88acced11e9372\AndroidManifest.xml:20:5-44
MERGED from [androidx.viewpager:viewpager:1.0.0] C:\Users\lenovo pc\.gradle\caches\transforms-2\files-2.1\b9b411498de22cd10ec42e7b4c354a80\AndroidManifest.xml:20:5-44
MERGED from [androidx.viewpager:viewpager:1.0.0] C:\Users\lenovo pc\.gradle\caches\transforms-2\files-2.1\b9b411498de22cd10ec42e7b4c354a80\AndroidManifest.xml:20:5-44
MERGED from [androidx.legacy:legacy-support-core-utils:1.0.0] C:\Users\lenovo pc\.gradle\caches\transforms-2\files-2.1\fabcb6a53fe4dbd2d39a53015b200017\AndroidManifest.xml:20:5-44
MERGED from [androidx.legacy:legacy-support-core-utils:1.0.0] C:\Users\lenovo pc\.gradle\caches\transforms-2\files-2.1\fabcb6a53fe4dbd2d39a53015b200017\AndroidManifest.xml:20:5-44
MERGED from [androidx.loader:loader:1.0.0] C:\Users\lenovo pc\.gradle\caches\transforms-2\files-2.1\64bf6721e9f0d65ef40d2374501e6fbe\AndroidManifest.xml:20:5-44
MERGED from [androidx.loader:loader:1.0.0] C:\Users\lenovo pc\.gradle\caches\transforms-2\files-2.1\64bf6721e9f0d65ef40d2374501e6fbe\AndroidManifest.xml:20:5-44
MERGED from [androidx.activity:activity:1.1.0] C:\Users\lenovo pc\.gradle\caches\transforms-2\files-2.1\877a55294ad3dcbc2a469ac8f9ace7ab\AndroidManifest.xml:20:5-22:41
MERGED from [androidx.activity:activity:1.1.0] C:\Users\lenovo pc\.gradle\caches\transforms-2\files-2.1\877a55294ad3dcbc2a469ac8f9ace7ab\AndroidManifest.xml:20:5-22:41
MERGED from [androidx.recyclerview:recyclerview:1.1.0] C:\Users\lenovo pc\.gradle\caches\transforms-2\files-2.1\8aadf35fe483e1516aad8f4651fca669\AndroidManifest.xml:20:5-22:41
MERGED from [androidx.recyclerview:recyclerview:1.1.0] C:\Users\lenovo pc\.gradle\caches\transforms-2\files-2.1\8aadf35fe483e1516aad8f4651fca669\AndroidManifest.xml:20:5-22:41
MERGED from [androidx.customview:customview:1.0.0] C:\Users\lenovo pc\.gradle\caches\transforms-2\files-2.1\8f7798aecf376cb4123ae0162085104e\AndroidManifest.xml:20:5-44
MERGED from [androidx.customview:customview:1.0.0] C:\Users\lenovo pc\.gradle\caches\transforms-2\files-2.1\8f7798aecf376cb4123ae0162085104e\AndroidManifest.xml:20:5-44
MERGED from [androidx.transition:transition:1.2.0] C:\Users\lenovo pc\.gradle\caches\transforms-2\files-2.1\69c286c467b42fb98c85689b7bd960eb\AndroidManifest.xml:20:5-22:41
MERGED from [androidx.transition:transition:1.2.0] C:\Users\lenovo pc\.gradle\caches\transforms-2\files-2.1\69c286c467b42fb98c85689b7bd960eb\AndroidManifest.xml:20:5-22:41
MERGED from [androidx.vectordrawable:vectordrawable:1.1.0] C:\Users\lenovo pc\.gradle\caches\transforms-2\files-2.1\dc4c63328d34763ce15332167361ff34\AndroidManifest.xml:20:5-22:41
MERGED from [androidx.vectordrawable:vectordrawable:1.1.0] C:\Users\lenovo pc\.gradle\caches\transforms-2\files-2.1\dc4c63328d34763ce15332167361ff34\AndroidManifest.xml:20:5-22:41
MERGED from [androidx.core:core:1.1.0] C:\Users\lenovo pc\.gradle\caches\transforms-2\files-2.1\c5e01893901d6aae442c13e5e4fdcaeb\AndroidManifest.xml:20:5-22:41
MERGED from [androidx.core:core:1.1.0] C:\Users\lenovo pc\.gradle\caches\transforms-2\files-2.1\c5e01893901d6aae442c13e5e4fdcaeb\AndroidManifest.xml:20:5-22:41
MERGED from [androidx.cursoradapter:cursoradapter:1.0.0] C:\Users\lenovo pc\.gradle\caches\transforms-2\files-2.1\da3b86c7745c25f782e967ece9d36765\AndroidManifest.xml:20:5-44
MERGED from [androidx.cursoradapter:cursoradapter:1.0.0] C:\Users\lenovo pc\.gradle\caches\transforms-2\files-2.1\da3b86c7745c25f782e967ece9d36765\AndroidManifest.xml:20:5-44
MERGED from [androidx.versionedparcelable:versionedparcelable:1.1.0] C:\Users\lenovo pc\.gradle\caches\transforms-2\files-2.1\5e2e5ada09dcede384c77bbb3765e7b3\AndroidManifest.xml:20:5-22:41
MERGED from [androidx.versionedparcelable:versionedparcelable:1.1.0] C:\Users\lenovo pc\.gradle\caches\transforms-2\files-2.1\5e2e5ada09dcede384c77bbb3765e7b3\AndroidManifest.xml:20:5-22:41
MERGED from [androidx.lifecycle:lifecycle-viewmodel-savedstate:2.2.0] C:\Users\lenovo pc\.gradle\caches\transforms-2\files-2.1\8a5b39ae6e1b6da0cbc751af48cc8d5f\AndroidManifest.xml:20:5-22:41
MERGED from [androidx.lifecycle:lifecycle-viewmodel-savedstate:2.2.0] C:\Users\lenovo pc\.gradle\caches\transforms-2\files-2.1\8a5b39ae6e1b6da0cbc751af48cc8d5f\AndroidManifest.xml:20:5-22:41
MERGED from [androidx.lifecycle:lifecycle-viewmodel:2.2.0] C:\Users\lenovo pc\.gradle\caches\transforms-2\files-2.1\b59655970cceebd87e159be4b4c786f4\AndroidManifest.xml:20:5-22:41
MERGED from [androidx.lifecycle:lifecycle-viewmodel:2.2.0] C:\Users\lenovo pc\.gradle\caches\transforms-2\files-2.1\b59655970cceebd87e159be4b4c786f4\AndroidManifest.xml:20:5-22:41
MERGED from [androidx.cardview:cardview:1.0.0] C:\Users\lenovo pc\.gradle\caches\transforms-2\files-2.1\7e544c486bef51d118d178f81c0b0f5f\AndroidManifest.xml:20:5-44
MERGED from [androidx.cardview:cardview:1.0.0] C:\Users\lenovo pc\.gradle\caches\transforms-2\files-2.1\7e544c486bef51d118d178f81c0b0f5f\AndroidManifest.xml:20:5-44
MERGED from [androidx.lifecycle:lifecycle-runtime:2.2.0] C:\Users\lenovo pc\.gradle\caches\transforms-2\files-2.1\39d5b58eb5393a3b047dfc94073c50f1\AndroidManifest.xml:20:5-22:41
MERGED from [androidx.lifecycle:lifecycle-runtime:2.2.0] C:\Users\lenovo pc\.gradle\caches\transforms-2\files-2.1\39d5b58eb5393a3b047dfc94073c50f1\AndroidManifest.xml:20:5-22:41
MERGED from [androidx.savedstate:savedstate:1.0.0] C:\Users\lenovo pc\.gradle\caches\transforms-2\files-2.1\35feee3d625693ba99116e5e60482064\AndroidManifest.xml:20:5-22:41
MERGED from [androidx.savedstate:savedstate:1.0.0] C:\Users\lenovo pc\.gradle\caches\transforms-2\files-2.1\35feee3d625693ba99116e5e60482064\AndroidManifest.xml:20:5-22:41
MERGED from [androidx.lifecycle:lifecycle-livedata:2.0.0] C:\Users\lenovo pc\.gradle\caches\transforms-2\files-2.1\5e3567182d835e3a9c2c0510f54b6459\AndroidManifest.xml:20:5-44
MERGED from [androidx.lifecycle:lifecycle-livedata:2.0.0] C:\Users\lenovo pc\.gradle\caches\transforms-2\files-2.1\5e3567182d835e3a9c2c0510f54b6459\AndroidManifest.xml:20:5-44
MERGED from [androidx.lifecycle:lifecycle-livedata-core:2.2.0] C:\Users\lenovo pc\.gradle\caches\transforms-2\files-2.1\b42d7795575f51c737adcc289c7a4f5a\AndroidManifest.xml:20:5-22:41
MERGED from [androidx.lifecycle:lifecycle-livedata-core:2.2.0] C:\Users\lenovo pc\.gradle\caches\transforms-2\files-2.1\b42d7795575f51c737adcc289c7a4f5a\AndroidManifest.xml:20:5-22:41
MERGED from [androidx.arch.core:core-runtime:2.1.0] C:\Users\lenovo pc\.gradle\caches\transforms-2\files-2.1\02fe9033d040193f12866186d57f3269\AndroidManifest.xml:20:5-22:41
MERGED from [androidx.arch.core:core-runtime:2.1.0] C:\Users\lenovo pc\.gradle\caches\transforms-2\files-2.1\02fe9033d040193f12866186d57f3269\AndroidManifest.xml:20:5-22:41
MERGED from [androidx.documentfile:documentfile:1.0.0] C:\Users\lenovo pc\.gradle\caches\transforms-2\files-2.1\535c9784fb9b1dfd187c768e23777385\AndroidManifest.xml:20:5-44
MERGED from [androidx.documentfile:documentfile:1.0.0] C:\Users\lenovo pc\.gradle\caches\transforms-2\files-2.1\535c9784fb9b1dfd187c768e23777385\AndroidManifest.xml:20:5-44
MERGED from [androidx.localbroadcastmanager:localbroadcastmanager:1.0.0] C:\Users\lenovo pc\.gradle\caches\transforms-2\files-2.1\2151daeba9609bada1bbf1edd9052591\AndroidManifest.xml:20:5-44
MERGED from [androidx.localbroadcastmanager:localbroadcastmanager:1.0.0] C:\Users\lenovo pc\.gradle\caches\transforms-2\files-2.1\2151daeba9609bada1bbf1edd9052591\AndroidManifest.xml:20:5-44
MERGED from [androidx.print:print:1.0.0] C:\Users\lenovo pc\.gradle\caches\transforms-2\files-2.1\40c8a942a904c315f6b265240624c8bc\AndroidManifest.xml:20:5-44
MERGED from [androidx.print:print:1.0.0] C:\Users\lenovo pc\.gradle\caches\transforms-2\files-2.1\40c8a942a904c315f6b265240624c8bc\AndroidManifest.xml:20:5-44
MERGED from [com.facebook.fresco:fbcore:2.0.0] C:\Users\lenovo pc\.gradle\caches\transforms-2\files-2.1\758f2702b604f9be5180f238584ce1ca\AndroidManifest.xml:5:5-7:41
MERGED from [com.facebook.fresco:fbcore:2.0.0] C:\Users\lenovo pc\.gradle\caches\transforms-2\files-2.1\758f2702b604f9be5180f238584ce1ca\AndroidManifest.xml:5:5-7:41
INJECTED from F:\Faeez\New folder\rnwebviewreppo\WebviewApp\android\app\src\main\AndroidManifest.xml
INJECTED from F:\Faeez\New folder\rnwebviewreppo\WebviewApp\android\app\src\main\AndroidManifest.xml
	android:targetSdkVersion
		INJECTED from F:\Faeez\New folder\rnwebviewreppo\WebviewApp\android\app\src\main\AndroidManifest.xml
		ADDED from F:\Faeez\New folder\rnwebviewreppo\WebviewApp\android\app\src\main\AndroidManifest.xml
		INJECTED from F:\Faeez\New folder\rnwebviewreppo\WebviewApp\android\app\src\main\AndroidManifest.xml
	android:minSdkVersion
		INJECTED from F:\Faeez\New folder\rnwebviewreppo\WebviewApp\android\app\src\main\AndroidManifest.xml
		ADDED from F:\Faeez\New folder\rnwebviewreppo\WebviewApp\android\app\src\main\AndroidManifest.xml
		INJECTED from F:\Faeez\New folder\rnwebviewreppo\WebviewApp\android\app\src\main\AndroidManifest.xml
provider#com.reactnativecommunity.webview.RNCWebViewFileProvider
ADDED from [:react-native-webview] F:\Faeez\New folder\rnwebviewreppo\WebviewApp\node_modules\react-native-webview\android\build\intermediates\library_manifest\release\AndroidManifest.xml:12:9-20:20
	android:grantUriPermissions
		ADDED from [:react-native-webview] F:\Faeez\New folder\rnwebviewreppo\WebviewApp\node_modules\react-native-webview\android\build\intermediates\library_manifest\release\AndroidManifest.xml:16:13-47
	android:authorities
		ADDED from [:react-native-webview] F:\Faeez\New folder\rnwebviewreppo\WebviewApp\node_modules\react-native-webview\android\build\intermediates\library_manifest\release\AndroidManifest.xml:14:13-64
	android:exported
		ADDED from [:react-native-webview] F:\Faeez\New folder\rnwebviewreppo\WebviewApp\node_modules\react-native-webview\android\build\intermediates\library_manifest\release\AndroidManifest.xml:15:13-37
	android:name
		ADDED from [:react-native-webview] F:\Faeez\New folder\rnwebviewreppo\WebviewApp\node_modules\react-native-webview\android\build\intermediates\library_manifest\release\AndroidManifest.xml:13:13-83
meta-data#android.support.FILE_PROVIDER_PATHS
ADDED from [:react-native-webview] F:\Faeez\New folder\rnwebviewreppo\WebviewApp\node_modules\react-native-webview\android\build\intermediates\library_manifest\release\AndroidManifest.xml:17:13-19:63
	android:resource
		ADDED from [:react-native-webview] F:\Faeez\New folder\rnwebviewreppo\WebviewApp\node_modules\react-native-webview\android\build\intermediates\library_manifest\release\AndroidManifest.xml:19:17-60
	android:name
		ADDED from [:react-native-webview] F:\Faeez\New folder\rnwebviewreppo\WebviewApp\node_modules\react-native-webview\android\build\intermediates\library_manifest\release\AndroidManifest.xml:18:17-67
receiver#com.learnium.RNDeviceInfo.RNDeviceReceiver
ADDED from [:react-native-device-info] F:\Faeez\New folder\rnwebviewreppo\WebviewApp\node_modules\react-native-device-info\android\build\intermediates\library_manifest\release\AndroidManifest.xml:12:9-19:20
	android:enabled
		ADDED from [:react-native-device-info] F:\Faeez\New folder\rnwebviewreppo\WebviewApp\node_modules\react-native-device-info\android\build\intermediates\library_manifest\release\AndroidManifest.xml:14:13-35
	android:exported
		ADDED from [:react-native-device-info] F:\Faeez\New folder\rnwebviewreppo\WebviewApp\node_modules\react-native-device-info\android\build\intermediates\library_manifest\release\AndroidManifest.xml:15:13-36
	android:name
		ADDED from [:react-native-device-info] F:\Faeez\New folder\rnwebviewreppo\WebviewApp\node_modules\react-native-device-info\android\build\intermediates\library_manifest\release\AndroidManifest.xml:13:13-70
intent-filter#action:name:com.android.vending.INSTALL_REFERRER
ADDED from [:react-native-device-info] F:\Faeez\New folder\rnwebviewreppo\WebviewApp\node_modules\react-native-device-info\android\build\intermediates\library_manifest\release\AndroidManifest.xml:16:13-18:29
action#com.android.vending.INSTALL_REFERRER
ADDED from [:react-native-device-info] F:\Faeez\New folder\rnwebviewreppo\WebviewApp\node_modules\react-native-device-info\android\build\intermediates\library_manifest\release\AndroidManifest.xml:17:17-79
	android:name
		ADDED from [:react-native-device-info] F:\Faeez\New folder\rnwebviewreppo\WebviewApp\node_modules\react-native-device-info\android\build\intermediates\library_manifest\release\AndroidManifest.xml:17:25-76
uses-permission#com.google.android.c2dm.permission.RECEIVE
ADDED from [com.google.android.gms:play-services-iid:17.0.0] C:\Users\lenovo pc\.gradle\caches\transforms-2\files-2.1\1acf29f9f97027f6438bb92e6341e58e\AndroidManifest.xml:23:5-82
	android:name
		ADDED from [com.google.android.gms:play-services-iid:17.0.0] C:\Users\lenovo pc\.gradle\caches\transforms-2\files-2.1\1acf29f9f97027f6438bb92e6341e58e\AndroidManifest.xml:23:22-79
activity#com.google.android.gms.common.api.GoogleApiActivity
ADDED from [com.google.android.gms:play-services-base:17.0.0] C:\Users\lenovo pc\.gradle\caches\transforms-2\files-2.1\8c3b974d54a12b098e5820e7374b424e\AndroidManifest.xml:23:9-26:75
	android:exported
		ADDED from [com.google.android.gms:play-services-base:17.0.0] C:\Users\lenovo pc\.gradle\caches\transforms-2\files-2.1\8c3b974d54a12b098e5820e7374b424e\AndroidManifest.xml:25:13-37
	android:theme
		ADDED from [com.google.android.gms:play-services-base:17.0.0] C:\Users\lenovo pc\.gradle\caches\transforms-2\files-2.1\8c3b974d54a12b098e5820e7374b424e\AndroidManifest.xml:26:13-72
	android:name
		ADDED from [com.google.android.gms:play-services-base:17.0.0] C:\Users\lenovo pc\.gradle\caches\transforms-2\files-2.1\8c3b974d54a12b098e5820e7374b424e\AndroidManifest.xml:24:13-79
meta-data#com.google.android.gms.version
ADDED from [com.google.android.gms:play-services-basement:17.0.0] C:\Users\lenovo pc\.gradle\caches\transforms-2\files-2.1\3fa86817713b684ebdcd0f7be44111e7\AndroidManifest.xml:23:9-25:69
	android:value
		ADDED from [com.google.android.gms:play-services-basement:17.0.0] C:\Users\lenovo pc\.gradle\caches\transforms-2\files-2.1\3fa86817713b684ebdcd0f7be44111e7\AndroidManifest.xml:25:13-66
	android:name
		ADDED from [com.google.android.gms:play-services-basement:17.0.0] C:\Users\lenovo pc\.gradle\caches\transforms-2\files-2.1\3fa86817713b684ebdcd0f7be44111e7\AndroidManifest.xml:24:13-58
uses-permission#com.google.android.finsky.permission.BIND_GET_INSTALL_REFERRER_SERVICE
ADDED from [com.android.installreferrer:installreferrer:1.1.1] C:\Users\lenovo pc\.gradle\caches\transforms-2\files-2.1\a0b4218decaf2681414963f93a557c04\AndroidManifest.xml:5:5-110
	android:name
		ADDED from [com.android.installreferrer:installreferrer:1.1.1] C:\Users\lenovo pc\.gradle\caches\transforms-2\files-2.1\a0b4218decaf2681414963f93a557c04\AndroidManifest.xml:5:22-107
uses-permission#android.permission.WRITE_EXTERNAL_STORAGE
IMPLIED from F:\Faeez\New folder\rnwebviewreppo\WebviewApp\android\app\src\main\AndroidManifest.xml:1:1-26:12 reason: com.android.installreferrer has a targetSdkVersion < 4
uses-permission#android.permission.READ_PHONE_STATE
IMPLIED from F:\Faeez\New folder\rnwebviewreppo\WebviewApp\android\app\src\main\AndroidManifest.xml:1:1-26:12 reason: com.android.installreferrer has a targetSdkVersion < 4
uses-permission#android.permission.READ_EXTERNAL_STORAGE
IMPLIED from F:\Faeez\New folder\rnwebviewreppo\WebviewApp\android\app\src\main\AndroidManifest.xml:1:1-26:12 reason: com.android.installreferrer requested WRITE_EXTERNAL_STORAGE
